[
  {
    "depth": "lev4-high2/00d.ppm",
    "color": "lev4-high2/00c.png",
    "permeter": 1000.0,
    "resolution": [ 2400, 467 ],
    "rotation": [ -0.7164, 0.002, 0.6977, 0.0015 ],
    "translation": [ 0, 0, 0 ]
  }
]
