[
  {
    "depth": "lev4-high2/00d.ppm",
    "color": "lev4-high2/00c.png",
    "permeter": 1000.0,
    "resolution": [ 1000, 194 ],
    "rotation": [ -0.7164, 0.002, 0.6977, 0.0015 ],
    "translation": [ 0, 0, 0 ]
  },
  {
    "depth": "lev4-high2/01d.ppm",
    "color": "lev4-high2/01c.png",
    "permeter": 1000.0,
    "resolution": [ 1000, 194 ],
    "rotation": [ -0.9991, 0.0045, -0.0415, -0.0042 ],
    "translation": [ 2.257, 0, -0.7725 ]
  },
  {
    "depth": "lev4-high2/02d.ppm",
    "color": "lev4-high2/02c.png",
    "permeter": 1000.0,
    "resolution": [ 1000, 194 ],
    "rotation": [ 0.7407, -0.0049, -0.6718, 0.0007 ],
    "translation": [ 3.4842, 0, 0.9474 ]
  },
  {
    "depth": "lev4-high2/14d.ppm",
    "color": "lev4-high2/14c.png",
    "permeter": 1000.0,
    "resolution": [ 1000, 194 ],
    "rotation": [ 0.2575, 0.035, -0.9656, -0.009 ],
    "translation": [ 0.397, 0, -19.641 ]
  },
  {
    "depth": "lev4-high2/15d.ppm",
    "color": "lev4-high2/15c.png",
    "permeter": 1000.0,
    "resolution": [ 1000, 194 ],
    "rotation": [ -0.4645, -0.0381, 0.8848, 0.0026 ],
    "translation": [ 0.034, 0, -17.547 ]
  }
]
